<?xml version="1.0" encoding="utf-8"?>
<!-- Generator: Adobe Illustrator 16.0.0, SVG Export Plug-In . SVG Version: 6.00 Build 0)  -->
<!DOCTYPE svg PUBLIC "-//W3C//DTD SVG 1.1//EN" "http://www.w3.org/Graphics/SVG/1.1/DTD/svg11.dtd">
<svg version="1.1" id="Capa_1" xmlns="http://www.w3.org/2000/svg" xmlns:xlink="http://www.w3.org/1999/xlink" x="0px" y="0px"
	 width="320px" height="320px" viewBox="0 0 320 320" enable-background="new 0 0 320 320" xml:space="preserve">
<path fill="#FFFFFF" d="M160.002,10C76.988,10,9.689,77.158,9.689,160.001S76.988,310,160.002,310
	c83.014,0,150.309-67.156,150.309-149.999S243.016,10,160.002,10z M25.551,159.831c0-74.104,60.196-133.928,134.451-133.928
	C232.58,25.903,291.718,84,294.352,155H268.13c0.452-3,0.87-5.794,0.87-8.739v-4.085c0-3.203-0.459-6.37-1.068-9.405
	c-0.213-1.054-0.429-2.219-0.703-3.324c-0.604-2.379-1.194-3.903-1.84-6.08l-1.053-2.844c-1.294-2.867-2.283-5.044-3.854-7.957
	c-0.258-0.481-0.481-0.742-0.733-1.207l-5.783-8.1c-0.317-0.401-0.545-0.684-0.872-1.074c-2.076-2.48-4.531-4.671-6.935-6.816
	c-2.818-2.512-6.001-4.64-9.231-6.586c-2.927-1.769-6.059-3.21-9.258-4.5l-4.42-1.549c-5.532-1.58-11.083-2.896-16.95-2.896
	c-6.844,0-11.421,0.06-18.104,1.737c-2.036,0.509-3.822,1.012-5.65,1.618c-2.645,0.879-5.352,1.919-7.855,3.175l-1.211,0.6
	c-4.154,2.107-9.555,5.585-13.001,8.791c-0.446,0.412-0.655,0.419-1.008,0.942l-5.041-4.04l-5.441-3.642
	c-7.458-4.466-15.732-7.315-24.374-8.575c-8.11-1.179-17.864-0.854-25.713,1.354l-3.056,0.838
	c-4.723,1.332-9.307,3.467-13.563,5.898c-0.774,0.443-1.64,0.949-2.417,1.469l-6.74,4.933c-4.629,3.625-10.646,10.644-13.636,15.684
	l-2.138,3.698c-2.083,3.418-4.503,10.165-5.48,14.106c-0.139,0.545-0.269,0.963-0.415,1.535l-0.938,4.897
	c-0.286,2.411-0.666,4.557-0.666,7.242c0,6.858,0.087,11.037,1.762,17.736c0.109,0.432,0.227,1.165,0.339,1.165H25.566
	C25.563,161,25.551,160.226,25.551,159.831z M196.143,155l-26.471,27.678l-36.196-60.511L108.517,161H66.476
	c-0.154,0-0.308-0.825-0.466-1.298c-2.281-6.855-2.847-14.764-1.807-21.964c0.733-5.016,1.96-10.013,4.235-14.558
	c2.525-5.03,5.529-9.843,9.527-13.813c2.909-2.881,5.895-5.68,9.46-7.787c0.38-0.216,0.628-0.409,0.959-0.598l3-1.666
	c6.296-3.042,9.68-4.137,16.765-5.289c6.182-0.997,13.089-0.369,19.071,0.928c3.53,0.771,7.954,2.269,11.072,3.978
	c2.969,1.619,5.39,2.965,8.11,4.996l2.729,2.201c1.584,1.343,4.472,3.823,5.896,5.264l4.312,3.858l2.173-1.849
	c0.405-0.415,0.646-0.545,1.04-0.907c4.706-4.36,10.183-9.635,15.813-12.471c4.64-2.334,7.933-3.918,13.222-5.069
	c4.729-1.025,8.086-1.367,13.158-1.367c5.082,0,8.843,0.907,13.598,2.101c3.701,0.931,7.804,2.766,11.093,4.729
	c0.691,0.416,1.26,0.74,1.947,1.166l3.719,2.637c1.813,1.392,3.475,2.896,5.094,4.507c0.494,0.499,1.13,1.054,1.541,1.57l1.44,1.674
	c0.492,0.544,0.97,1.158,1.399,1.717l2.615,3.739c1.672,2.672,3.186,5.47,4.272,8.438c0.918,2.487,1.649,4.729,2.296,7.304
	c1.706,6.828,1.57,15.829,0.201,21.829H196.143z M247.63,171c-0.008,0-0.012,0.107-0.021,0.12c-0.258,0.397-0.395,0.692-0.648,1.087
	l-2.707,3.807c-2.62,3.334-5.68,6.227-8.665,9.24l-9.084,8.957c-1.249,1.249-2.692,2.911-4.028,4.014l-26.635,26.289
	c-0.279,0.273-0.129,0.196-0.439,0.473c-3.463,3.06-7.811,7.966-11.467,11.369l-0.791,0.761c-2.076,1.766-7.074,7.013-9.049,8.983
	l-9.854,9.729c-1.017,1.029-2.669,1.98-4.64,1.98c-3.925,0-5.753-2.687-8.143-5.093c-0.313-0.313-0.498-0.475-0.813-0.747
	l-5.742-5.672c-2.19-2.193-4.29-4.291-6.481-6.484l-14.71-14.48c-0.018-0.021-0.046-0.049-0.063-0.068l-0.335-0.314
	c-3.659-3.335-6.868-7.151-10.527-10.486l-3.75-3.642c-3.768-3.765-7.504-7.702-11.421-11.288c-2.414-2.208-7.095-7.096-9.726-9.727
	l-3.293-3.199c-1.706-1.643-5.836-5.608-7.277-7.244c-0.328-0.37-0.405-0.51-0.781-0.879c-0.67-0.657-1.404-1.483-2.152-2.483
	h41.836l18.321-22.888l34.295,56.294L199.912,171H247.63z M160.002,294.115C91.154,294.115,34.401,243,26.5,176h31.404
	c1.01,2,2.096,3.544,3.257,5.277c0.265,0.395,0.453,0.692,0.729,1.07l4.971,6.049c1.765,2.217,6.698,6.709,9.063,9.103l5.48,5.408
	c4.894,4.895,9.761,9.631,14.658,14.528c1.242,1.241,2.39,2.389,3.631,3.635l14.63,14.427c0.304,0.259,0.178,0.168,0.454,0.455
	l1.392,1.323c2.905,2.91,7.343,7.676,10.071,10.041c2.553,2.219,7.674,7.576,10.039,9.94l2.721,2.722
	c3.339,3.129,6.904,7.363,10.804,9.308c3.625,1.808,6.381,2.274,10.573,2.274c1.717,0,4.563-0.481,6.091-1.172
	c1.668-0.74,3.259-1.463,4.802-2.471l1.039-0.768c1.926-1.36,6.726-6.635,9.274-9.021c0.367-0.342,0.587-0.516,0.938-0.872
	c2.029-2.03,8.631-8.866,10.549-10.472c1.207-1.012,9.27-9.21,11.449-11.383l14.441-14.227c3.555-3.283,7.816-7.783,11.303-11.268
	l7.396-7.264c1.24-1.246,2.393-2.39,3.635-3.632l7.396-7.263c0.638-0.643,1.175-1.188,1.816-1.821
	c0.395-0.391,0.495-0.544,0.844-0.963l1.814-1.953c1.161-1.221,2.288-2.627,3.236-4.028l3.61-5.467
	c0.453-0.746,0.845-1.627,1.318-2.401c0.756-1.244,1.435-2.118,2.026-4.118h30.625C288.296,240,230.486,294.115,160.002,294.115z"/>
</svg>
